Text as Data: Week 4
…
Tidying Jane Austen: create data frame

library(janeaustenr)
original_books <- austen_books() %>%
  group_by(book) %>%
  mutate(linenumber = row_number()) %>%
  ungroup()
original_books

## # A tibble: 73,422 × 3
##    text                    book                linenumber
##    <chr>                   <fct>                    <int>
##  1 "SENSE AND SENSIBILITY" Sense & Sensibility          1
##  2 ""                      Sense & Sensibility          2
##  3 "by Jane Austen"        Sense & Sensibility          3
##  4 ""                      Sense & Sensibility          4
##  5 "(1811)"                Sense & Sensibility          5
##  6 ""                      Sense & Sensibility          6
##  7 ""                      Sense & Sensibility          7
##  8 ""                      Sense & Sensibility          8
##  9 ""                      Sense & Sensibility          9
## 10 "CHAPTER 1"             Sense & Sensibility         10
## # … with 73,412 more rows

Tidying Jane Austen: unnest tokens

tidy_books <- original_books %>%
  unnest_tokens(word, text)
tidy_books

## # A tibble: 725,055 × 3
##    book                linenumber word       
##    <fct>                    <int> <chr>      
##  1 Sense & Sensibility          1 sense      
##  2 Sense & Sensibility          1 and        
##  3 Sense & Sensibility          1 sensibility
##  4 Sense & Sensibility          3 by         
##  5 Sense & Sensibility          3 jane       
##  6 Sense & Sensibility          3 austen     
##  7 Sense & Sensibility          5 1811       
##  8 Sense & Sensibility         10 chapter    
##  9 Sense & Sensibility         10 1          
## 10 Sense & Sensibility         13 the        
## # … with 725,045 more rows

Tidying Jane Austen: remove stopwords and count words

data("stop_words")
tidy_books <- original_books %>%
  unnest_tokens(word, text) %>% 
  anti_join(stop_words)
tidy_books %>% 
  count(word, sort = TRUE)

## # A tibble: 13,914 × 2
##    word       n
##    <chr>  <int>
##  1 miss    1855
##  2 time    1337
##  3 fanny    862
##  4 dear     822
##  5 lady     817
##  6 sir      806
##  7 day      797
##  8 emma     787
##  9 sister   727
## 10 house    699
## # … with 13,904 more rows
…
